/Users/raitis/eclipse/eclipse-ee/workspace/ourierSys-v3/src/com/project/dao/PersistenceValidationGroup.java
/Users/raitis/eclipse/eclipse-ee/workspace/ourierSys-v3/src/com/project/dao/SendtoDAO.java
/Users/raitis/eclipse/eclipse-ee/workspace/ourierSys-v3/src/com/project/dao/CouriersDAO.java
/Users/raitis/eclipse/eclipse-ee/workspace/ourierSys-v3/src/com/project/dao/MessagesDAO.java
/Users/raitis/eclipse/eclipse-ee/workspace/ourierSys-v3/src/com/project/dao/Message.java
/Users/raitis/eclipse/eclipse-ee/workspace/ourierSys-v3/src/com/project/dao/Sendfrom.java
/Users/raitis/eclipse/eclipse-ee/workspace/ourierSys-v3/src/com/project/controllers/BookingController.java
/Users/raitis/eclipse/eclipse-ee/workspace/ourierSys-v3/src/com/project/dao/FormValidationGroup.java
/Users/raitis/eclipse/eclipse-ee/workspace/ourierSys-v3/src/com/project/service/BookingsService.java
/Users/raitis/eclipse/eclipse-ee/workspace/ourierSys-v3/src/com/project/dao/FeedbacksDAO.java
/Users/raitis/eclipse/eclipse-ee/workspace/ourierSys-v3/src/com/project/dao/Client.java
/Users/raitis/eclipse/eclipse-ee/workspace/ourierSys-v3/src/com/project/dao/UsersDAO.java
/Users/raitis/eclipse/eclipse-ee/workspace/ourierSys-v3/src/com/project/validation/ValidEmail.java
/Users/raitis/eclipse/eclipse-ee/workspace/ourierSys-v3/src/com/project/controllers/LoginController.java
/Users/raitis/eclipse/eclipse-ee/workspace/ourierSys-v3/src/com/project/dao/SendfromDAO.java
/Users/raitis/eclipse/eclipse-ee/workspace/ourierSys-v3/src/com/project/dao/Feedback.java
/Users/raitis/eclipse/eclipse-ee/workspace/ourierSys-v3/src/com/project/controllers/HomeController.java
/Users/raitis/eclipse/eclipse-ee/workspace/ourierSys-v3/src/com/project/dao/JobsDAO.java
/Users/raitis/eclipse/eclipse-ee/workspace/ourierSys-v3/src/com/project/dao/User.java
/Users/raitis/eclipse/eclipse-ee/workspace/ourierSys-v3/src/com/project/service/UsersService.java
/Users/raitis/eclipse/eclipse-ee/workspace/ourierSys-v3/src/com/project/dao/Authorities.java
/Users/raitis/eclipse/eclipse-ee/workspace/ourierSys-v3/src/com/project/dao/Sendto.java
/Users/raitis/eclipse/eclipse-ee/workspace/ourierSys-v3/src/com/project/dao/Courier.java
/Users/raitis/eclipse/eclipse-ee/workspace/ourierSys-v3/src/com/project/controllers/ErrorHandler.java
/Users/raitis/eclipse/eclipse-ee/workspace/ourierSys-v3/src/com/project/dao/ClientsDAO.java
/Users/raitis/eclipse/eclipse-ee/workspace/ourierSys-v3/src/com/project/validation/ValidEmailImpl.java
/Users/raitis/eclipse/eclipse-ee/workspace/ourierSys-v3/src/com/project/dao/Job.java
